...................
----------------------------------------------------------------------
Ran 19 tests in 0.320s

OK
Name             Stmts   Miss Branch BrPart  Cover   Missing
------------------------------------------------------------
Collatz.py          28      0      8      0   100%
TestCollatz.py      83      0      0      0   100%
------------------------------------------------------------
TOTAL              111      0      8      0   100%
