209 284 128
230 63 125
390 485 134
423 344 134
97 180 125
157 248 128
31 450 144
295 489 144
364 417 134
72 442 144
758293 37544 509
777032 646111 504
398292 555083 470
352106 246690 441
900460 847263 445
812090 576835 509
849666 991174 507
522915 705257 509
621397 512980 452
910706 795373 525
969003 980947 458
979068 761311 525
996897 2718 525
303174 433849 449
486396 715120 509
442723 568103 470
81414 38017 351
781402 762434 468
942154 1687 525
223558 881278 525
364380 321838 441
340571 748978 509
308071 51197 443
843077 827827 525
393821 715989 509
754084 610636 509
466542 320561 449
217698 535584 470
671123 397932 509
372507 298157 441
360594 584360 470
239447 303019 407
457690 687421 509
575734 549179 421
518575 315190 470
440059 549240 470
993371 355981 525
122950 771687 509
889432 426509 525
841825 1082 525
871259 299602 525
638532 682373 442
89415 602835 470
708148 340520 509
638662 814239 504
166366 65425 383
891135 326408 525
311721 748883 509
352854 829665 509
42814 174731 383
278776 179079 443
427076 763892 509
239373 129485 443
33695 42595 324
776593 692065 504
301072 101728 443
162976 828896 509
525120 8621 470
118061 879343 525
7794 53010 340
359206 800159 509
734996 460074 509
370188 821962 509
275234 365913 441
736948 914195 525
665858 758546 504
843958 949225 507
932831 326144 525
91442 693163 509
583628 886223 525
285642 357591 441
720400 903082 525
451724 708302 509
411742 823166 509
184663 956090 525
413742 798165 509
912916 576945 525
50610 529486 470
714410 944161 525
9492 437115 449
401814 131348 443
678292 741650 504
870449 10680 525
961205 932636 507
426595 906860 525
693789 509321 509
849123 868279 419
607168 648407 509
969587 97008 525
894460 511998 525
289561 344519 384
123311 316385 443
367857 771026 509
851956 218282 525
462378 423698 444
787698 143400 509
913819 869428 476
936133 958017 507
123237 682562 509
371389 629725 509
778819 728528 468
745412 38804 509
746717 670788 504
989547 351490 525
704458 348020 509
271235 709612 509
35064 830789 509
579327 340288 470
682379 883655 525
846007 342231 525
175634 893293 525
564661 597068 434
826645 732245 468
633541 273676 509
976365 701617 525
459784 855664 525
710828 814208 468
972450 245182 525
483736 951785 525
704533 710844 504
607578 394430 470
572969 578432 390
303201 277284 389
317976 590137 470
950558 531111 525
801656 12909 509
93270 861938 525
886459 583142 525
211966 762940 509
558672 526527 452
324082 549067 470
125031 412992 449
862094 432395 525
846801 74348 525
697282 94753 509
749675 50255 509
952424 168307 525
425880 393871 449
630821 747704 504
263305 442685 449
800655 910839 525
142651 848350 525
855877 323783 525
808883 444616 509
655297 491093 509
663994 685278 442
906173 381919 525
469595 186619 449
542207 339079 470
171439 984935 525
921940 643555 525
929806 861075 476
736605 883731 525
301008 981492 525
500540 275322 449
861289 550116 525
2088 303757 443
364775 652844 509
50276 259324 443
193989 167221 365
378453 604828 470
398310 111319 443
298009 523538 470
716757 385349 509
858112 6454 525
469116 73021 449
801214 164291 509
285008 111995 443
897868 263620 525
218122 830556 509
712691 322570 509
912482 787395 525
165626 891106 525
997858 578961 525
360469 601925 470
507319 83642 449
441351 645458 509
544423 298365 470
148788 752038 509
277255 188788 443
344 344 33
946 946 37
371 371 46
911 911 42
947 947 37
342 342 126
621 621 88
682 682 13
881 881 117
185 185 45
997010 999999 440
1200 2500 209
