61132 926584 525
84681 356231 443
697256 129995 509
707916 419230 509
999383 506757 525
726047 626795 504
550325 777874 509
232030 156532 443
836515 982192 525
865965 231227 525
152005 673174 509
208439 947759 525
162921 737734 509
419629 678159 509
772456 60272 509
788428 854383 525
896867 335391 525
494942 185524 449
288966 527468 470
305746 539776 470
860907 358727 525
5241 308770 443
488153 415633 444
478429 924327 525
138103 27253 354
717750 397076 509
726788 356439 509
288562 880987 525
882861 7080 525
339080 593382 470
537113 32545 470
29676 694627 509
651113 619385 509
927296 308621 525
149592 894904 525
561789 180567 470
283106 382716 441
722597 52502 509
427196 354177 449
557322 923692 525
35061 450335 449
435617 821864 509
214605 412079 449
136202 554080 470
960862 807117 525
406008 349479 436
42135 454213 449
452330 102321 449
243072 249310 350
233070 348651 441
252964 94303 443
835063 793805 468
680974 218462 509
435743 361704 449
614810 200804 470
118463 619798 470
47841 235711 443
474633 341478 449
540247 433882 470
784868 258318 509
444392 329957 449
127143 550917 470
618817 162075 470
214440 781163 509
991726 771930 525
552465 447715 470
267244 588832 470
612637 364503 470
261946 799324 509
893535 644405 525
466955 403282 449
976824 583332 525
858296 952010 507
330135 33974 443
268517 455587 449
789755 59291 509
269988 669074 509
627602 907494 525
602260 35526 470
216125 837745 509
492354 308555 449
633950 779102 504
111567 497063 449
242525 315869 407
67805 8374 340
392022 808292 509
126180 367590 443
238534 582040 470
969715 33522 525
348336 405285 436
833739 231143 509
612254 57030 470
473550 732184 509
301067 132749 443
670062 139862 509
96592 263010 443
163729 699131 509
364707 191107 443
961704 625050 525
102535 265663 443
1 999999 525
999999 1 525
