...................................
----------------------------------------------------------------------
Ran 35 tests in 0.514s

OK
Name             Stmts   Miss Branch BrPart  Cover   Missing
------------------------------------------------------------
Collatz.py          64      0     28      0   100%
TestCollatz.py     134      0      0      0   100%
------------------------------------------------------------
TOTAL              198      0     28      0   100%

